strict graph {
	c1 [tipo=c];
	c2 [tipo=c];
	c3 [tipo=c];
	c4 [tipo=c];
	c5 [tipo=c];
	c6 [tipo=c];
	c7 [tipo=c];
	c8 [tipo=c];
	c9 [tipo=c];
	c10 [tipo=c];
	c11 [tipo=c];
	c12 [tipo=c];
	c13 [tipo=c];
	c14 [tipo=c];
	c15 [tipo=c];
	p1 [tipo=p];
	p2 [tipo=p];
	p3 [tipo=p];
	p4 [tipo=p];
	p5 [tipo=p];
	p6 [tipo=p];
	p7 [tipo=p];
	p8 [tipo=p];
	p9 [tipo=p];
	p10 [tipo=p];
	p11 [tipo=p];
	c1 -- p11;
	c1 -- p6;
	c1 -- p8;
	c1 -- p10;
	c1 -- p9;
	c1 -- p5;
	c1 -- p1;
	c1 -- p3;
	c2 -- p5;
	c2 -- p7;
	c2 -- p10;
	c2 -- p4;
	c2 -- p11;
	c3 -- p2;
	c4 -- p4;
	c4 -- p6;
	c4 -- p10;
	c4 -- p2;
	c4 -- p8;
	c4 -- p11;
	c4 -- p5;
	c5 -- p7;
	c5 -- p3;
	c5 -- p2;
	c5 -- p8;
	c5 -- p5;
	c5 -- p9;
	c6 -- p8;
	c6 -- p3;
	c6 -- p1;
	c6 -- p5;
	c6 -- p4;
	c6 -- p11;
	c7 -- p5;
	c7 -- p6;
	c7 -- p2;
	c8 -- p10;
	c8 -- p11;
	c8 -- p8;
	c8 -- p2;
	c8 -- p9;
	c8 -- p1;
	c8 -- p3;
	c8 -- p4;
	c9 -- p11;
	c9 -- p5;
	c9 -- p3;
	c10 -- p6;
	c10 -- p4;
	c10 -- p3;
	c10 -- p10;
	c10 -- p5;
	c10 -- p2;
	c11 -- p1;
	c11 -- p6;
	c11 -- p5;
	c11 -- p2;
	c11 -- p4;
	c11 -- p3;
	c12 -- p3;
	c12 -- p7;
	c12 -- p8;
	c12 -- p6;
	c13 -- p11;
	c13 -- p2;
	c13 -- p4;
	c13 -- p9;
	c13 -- p5;
	c13 -- p3;
	c14 -- p1;
	c14 -- p6;
	c14 -- p4;
	c14 -- p11;
	c14 -- p10;
	c14 -- p3;
	c14 -- p5;
	c15 -- p2;
	c15 -- p4;
	c15 -- p9;
}
