strict graph {
	c1 [tipo=c];
	c2 [tipo=c];
	c3 [tipo=c];
	c4 [tipo=c];
	c5 [tipo=c];
	c6 [tipo=c];
	c7 [tipo=c];
	c8 [tipo=c];
	c9 [tipo=c];
	c10 [tipo=c];
	c11 [tipo=c];
	c12 [tipo=c];
	c13 [tipo=c];
	c14 [tipo=c];
	c15 [tipo=c];
	p1 [tipo=p];
	p2 [tipo=p];
	p3 [tipo=p];
	p4 [tipo=p];
	p5 [tipo=p];
	p6 [tipo=p];
	p7 [tipo=p];
	p8 [tipo=p];
	c1 -- p3;
	c1 -- p1;
	c1 -- p2;
	c1 -- p7;
	c1 -- p4;
	c2 -- p6;
	c2 -- p7;
	c3 -- p5;
	c3 -- p3;
	c3 -- p7;
	c4 -- p6;
	c4 -- p1;
	c4 -- p5;
	c5 -- p3;
	c5 -- p4;
	c5 -- p5;
	c5 -- p2;
	c6 -- p5;
	c6 -- p6;
	c6 -- p4;
	c6 -- p3;
	c6 -- p1;
	c7 -- p6;
	c7 -- p2;
	c7 -- p1;
	c7 -- p4;
	c7 -- p8;
	c8 -- p7;
	c8 -- p2;
	c8 -- p8;
	c8 -- p6;
	c8 -- p3;
	c9 -- p1;
	c9 -- p7;
	c9 -- p6;
	c9 -- p5;
	c9 -- p8;
	c10 -- p5;
	c10 -- p8;
	c10 -- p2;
	c11 -- p2;
	c11 -- p8;
	c11 -- p1;
	c11 -- p6;
	c11 -- p7;
	c12 -- p3;
	c13 -- p4;
	c13 -- p6;
	c13 -- p5;
	c14 -- p3;
	c14 -- p7;
	c14 -- p6;
	c14 -- p5;
	c15 -- p8;
	c15 -- p3;
	c15 -- p6;
}
