strict graph {
	c1 [tipo=c];
	c2 [tipo=c];
	c3 [tipo=c];
	c4 [tipo=c];
	c5 [tipo=c];
	c6 [tipo=c];
	c7 [tipo=c];
	c8 [tipo=c];
	c9 [tipo=c];
	c10 [tipo=c];
	c11 [tipo=c];
	c12 [tipo=c];
	c13 [tipo=c];
	c14 [tipo=c];
	c15 [tipo=c];
	c16 [tipo=c];
	c17 [tipo=c];
	c18 [tipo=c];
	c19 [tipo=c];
	c20 [tipo=c];
	c21 [tipo=c];
	c22 [tipo=c];
	c23 [tipo=c];
	c24 [tipo=c];
	c25 [tipo=c];
	c26 [tipo=c];
	c27 [tipo=c];
	c28 [tipo=c];
	c29 [tipo=c];
	c30 [tipo=c];
	c31 [tipo=c];
	c32 [tipo=c];
	c33 [tipo=c];
	c34 [tipo=c];
	c35 [tipo=c];
	c36 [tipo=c];
	c37 [tipo=c];
	c38 [tipo=c];
	c39 [tipo=c];
	c40 [tipo=c];
	c41 [tipo=c];
	c42 [tipo=c];
	c43 [tipo=c];
	c44 [tipo=c];
	c45 [tipo=c];
	c46 [tipo=c];
	c47 [tipo=c];
	p1 [tipo=p];
	p2 [tipo=p];
	p3 [tipo=p];
	p4 [tipo=p];
	p5 [tipo=p];
	p6 [tipo=p];
	p7 [tipo=p];
	p8 [tipo=p];
	p9 [tipo=p];
	p10 [tipo=p];
	p11 [tipo=p];
	p12 [tipo=p];
	p13 [tipo=p];
	p14 [tipo=p];
	p15 [tipo=p];
	p16 [tipo=p];
	p17 [tipo=p];
	p18 [tipo=p];
	p19 [tipo=p];
	p20 [tipo=p];
	p21 [tipo=p];
	p22 [tipo=p];
	p23 [tipo=p];
	p24 [tipo=p];
	p25 [tipo=p];
	p26 [tipo=p];
	p27 [tipo=p];
	p28 [tipo=p];
	p29 [tipo=p];
	p30 [tipo=p];
	p31 [tipo=p];
	p32 [tipo=p];
	p33 [tipo=p];
	p34 [tipo=p];
	p35 [tipo=p];
	p36 [tipo=p];
	p37 [tipo=p];
	p38 [tipo=p];
	p39 [tipo=p];
	p40 [tipo=p];
	p41 [tipo=p];
	p42 [tipo=p];
	p43 [tipo=p];
	p44 [tipo=p];
	p45 [tipo=p];
	p46 [tipo=p];
	p47 [tipo=p];
	p48 [tipo=p];
	p49 [tipo=p];
	p50 [tipo=p];
	p51 [tipo=p];
	p52 [tipo=p];
	p53 [tipo=p];
	p54 [tipo=p];
	p55 [tipo=p];
	p56 [tipo=p];
	p57 [tipo=p];
	p58 [tipo=p];
	p59 [tipo=p];
	p60 [tipo=p];
	p61 [tipo=p];
	p62 [tipo=p];
	p63 [tipo=p];
	p64 [tipo=p];
	p65 [tipo=p];
	p66 [tipo=p];
	p67 [tipo=p];
	p68 [tipo=p];
	p69 [tipo=p];
	p70 [tipo=p];
	p71 [tipo=p];
	p72 [tipo=p];
	p73 [tipo=p];
	p74 [tipo=p];
	p75 [tipo=p];
	p76 [tipo=p];
	p77 [tipo=p];
	p78 [tipo=p];
	p79 [tipo=p];
	p80 [tipo=p];
	p81 [tipo=p];
	p82 [tipo=p];
	p83 [tipo=p];
	p84 [tipo=p];
	p85 [tipo=p];
	p86 [tipo=p];
	p87 [tipo=p];
	p88 [tipo=p];
	p89 [tipo=p];
	p90 [tipo=p];
	p91 [tipo=p];
	p92 [tipo=p];
	p93 [tipo=p];
	p94 [tipo=p];
	p95 [tipo=p];
	p96 [tipo=p];
	p97 [tipo=p];
	c1 -- p22;
	c1 -- p2;
	c1 -- p35;
	c1 -- p15;
	c1 -- p60;
	c1 -- p88;
	c1 -- p46;
	c1 -- p67;
	c1 -- p57;
	c1 -- p21;
	c1 -- p90;
	c1 -- p1;
	c1 -- p87;
	c1 -- p66;
	c1 -- p92;
	c1 -- p89;
	c1 -- p42;
	c1 -- p71;
	c1 -- p72;
	c1 -- p63;
	c1 -- p52;
	c1 -- p33;
	c1 -- p49;
	c1 -- p14;
	c1 -- p19;
	c1 -- p78;
	c1 -- p79;
	c1 -- p53;
	c1 -- p27;
	c1 -- p77;
	c1 -- p16;
	c1 -- p94;
	c1 -- p65;
	c1 -- p55;
	c1 -- p30;
	c1 -- p40;
	c1 -- p20;
	c1 -- p93;
	c1 -- p82;
	c1 -- p69;
	c1 -- p3;
	c1 -- p96;
	c1 -- p97;
	c1 -- p61;
	c1 -- p84;
	c1 -- p36;
	c1 -- p54;
	c1 -- p26;
	c1 -- p68;
	c1 -- p43;
	c1 -- p24;
	c1 -- p50;
	c1 -- p44;
	c1 -- p32;
	c1 -- p39;
	c1 -- p28;
	c1 -- p10;
	c1 -- p17;
	c1 -- p85;
	c2 -- p33;
	c2 -- p7;
	c2 -- p62;
	c2 -- p72;
	c2 -- p51;
	c2 -- p97;
	c2 -- p15;
	c2 -- p16;
	c2 -- p94;
	c2 -- p68;
	c2 -- p9;
	c2 -- p37;
	c2 -- p29;
	c2 -- p4;
	c2 -- p75;
	c2 -- p85;
	c2 -- p80;
	c2 -- p14;
	c2 -- p63;
	c2 -- p30;
	c2 -- p18;
	c2 -- p41;
	c2 -- p90;
	c2 -- p57;
	c2 -- p76;
	c2 -- p69;
	c2 -- p95;
	c2 -- p84;
	c2 -- p2;
	c2 -- p56;
	c2 -- p20;
	c2 -- p52;
	c2 -- p87;
	c2 -- p10;
	c2 -- p8;
	c3 -- p75;
	c3 -- p3;
	c3 -- p41;
	c3 -- p97;
	c3 -- p65;
	c3 -- p13;
	c3 -- p4;
	c3 -- p38;
	c3 -- p85;
	c3 -- p40;
	c3 -- p88;
	c3 -- p28;
	c3 -- p71;
	c3 -- p9;
	c3 -- p84;
	c3 -- p36;
	c3 -- p26;
	c3 -- p10;
	c3 -- p6;
	c3 -- p8;
	c3 -- p46;
	c3 -- p48;
	c3 -- p35;
	c3 -- p96;
	c3 -- p81;
	c3 -- p43;
	c3 -- p60;
	c3 -- p94;
	c3 -- p22;
	c3 -- p32;
	c3 -- p21;
	c3 -- p57;
	c3 -- p49;
	c3 -- p29;
	c3 -- p73;
	c3 -- p93;
	c3 -- p86;
	c3 -- p62;
	c3 -- p47;
	c4 -- p88;
	c4 -- p82;
	c4 -- p87;
	c4 -- p70;
	c4 -- p80;
	c4 -- p12;
	c4 -- p27;
	c4 -- p75;
	c4 -- p48;
	c4 -- p43;
	c4 -- p45;
	c4 -- p42;
	c4 -- p29;
	c4 -- p61;
	c4 -- p90;
	c4 -- p46;
	c4 -- p35;
	c4 -- p95;
	c4 -- p59;
	c4 -- p2;
	c4 -- p91;
	c4 -- p7;
	c4 -- p58;
	c4 -- p47;
	c4 -- p83;
	c4 -- p92;
	c4 -- p39;
	c4 -- p52;
	c4 -- p23;
	c4 -- p76;
	c4 -- p71;
	c4 -- p4;
	c4 -- p54;
	c4 -- p15;
	c4 -- p63;
	c4 -- p56;
	c4 -- p8;
	c4 -- p66;
	c4 -- p9;
	c4 -- p1;
	c4 -- p17;
	c4 -- p5;
	c4 -- p50;
	c4 -- p34;
	c4 -- p10;
	c4 -- p53;
	c4 -- p22;
	c4 -- p31;
	c4 -- p60;
	c4 -- p74;
	c4 -- p32;
	c4 -- p65;
	c4 -- p62;
	c4 -- p72;
	c4 -- p68;
	c4 -- p14;
	c4 -- p51;
	c4 -- p78;
	c4 -- p19;
	c4 -- p97;
	c4 -- p33;
	c4 -- p89;
	c5 -- p48;
	c5 -- p20;
	c5 -- p95;
	c5 -- p51;
	c5 -- p38;
	c5 -- p10;
	c5 -- p73;
	c5 -- p88;
	c5 -- p76;
	c5 -- p37;
	c5 -- p78;
	c5 -- p74;
	c5 -- p15;
	c5 -- p47;
	c5 -- p83;
	c5 -- p17;
	c5 -- p46;
	c5 -- p42;
	c5 -- p44;
	c5 -- p63;
	c5 -- p29;
	c5 -- p43;
	c5 -- p55;
	c5 -- p32;
	c5 -- p50;
	c5 -- p66;
	c5 -- p45;
	c5 -- p14;
	c5 -- p39;
	c5 -- p69;
	c5 -- p86;
	c5 -- p7;
	c5 -- p96;
	c5 -- p65;
	c5 -- p28;
	c5 -- p8;
	c5 -- p85;
	c5 -- p82;
	c5 -- p87;
	c5 -- p58;
	c5 -- p56;
	c5 -- p53;
	c5 -- p36;
	c5 -- p71;
	c5 -- p31;
	c5 -- p72;
	c6 -- p19;
	c6 -- p76;
	c6 -- p43;
	c6 -- p75;
	c6 -- p17;
	c6 -- p72;
	c6 -- p46;
	c6 -- p87;
	c6 -- p68;
	c6 -- p40;
	c6 -- p27;
	c6 -- p54;
	c6 -- p63;
	c6 -- p56;
	c6 -- p67;
	c6 -- p74;
	c6 -- p5;
	c6 -- p71;
	c6 -- p24;
	c6 -- p41;
	c6 -- p62;
	c6 -- p30;
	c6 -- p69;
	c6 -- p7;
	c6 -- p6;
	c6 -- p13;
	c6 -- p66;
	c6 -- p86;
	c6 -- p81;
	c6 -- p49;
	c6 -- p9;
	c6 -- p93;
	c6 -- p4;
	c6 -- p96;
	c6 -- p38;
	c6 -- p70;
	c7 -- p21;
	c7 -- p24;
	c7 -- p32;
	c7 -- p2;
	c7 -- p38;
	c7 -- p53;
	c7 -- p39;
	c7 -- p90;
	c7 -- p56;
	c7 -- p55;
	c7 -- p28;
	c7 -- p80;
	c7 -- p83;
	c7 -- p70;
	c7 -- p30;
	c7 -- p96;
	c7 -- p54;
	c7 -- p74;
	c7 -- p67;
	c7 -- p82;
	c7 -- p52;
	c7 -- p62;
	c7 -- p85;
	c7 -- p34;
	c7 -- p19;
	c7 -- p47;
	c7 -- p73;
	c7 -- p23;
	c7 -- p91;
	c7 -- p13;
	c7 -- p35;
	c7 -- p33;
	c7 -- p87;
	c8 -- p90;
	c8 -- p32;
	c8 -- p66;
	c8 -- p34;
	c8 -- p95;
	c8 -- p57;
	c8 -- p44;
	c8 -- p91;
	c8 -- p72;
	c8 -- p18;
	c8 -- p23;
	c8 -- p80;
	c8 -- p8;
	c8 -- p79;
	c8 -- p20;
	c8 -- p15;
	c8 -- p56;
	c8 -- p77;
	c8 -- p42;
	c8 -- p52;
	c8 -- p46;
	c8 -- p37;
	c8 -- p82;
	c8 -- p3;
	c8 -- p12;
	c8 -- p84;
	c8 -- p11;
	c8 -- p74;
	c8 -- p76;
	c8 -- p68;
	c8 -- p69;
	c8 -- p62;
	c8 -- p19;
	c8 -- p22;
	c8 -- p49;
	c8 -- p43;
	c8 -- p81;
	c8 -- p51;
	c8 -- p1;
	c8 -- p64;
	c8 -- p17;
	c8 -- p25;
	c8 -- p5;
	c8 -- p86;
	c8 -- p16;
	c8 -- p85;
	c8 -- p4;
	c8 -- p73;
	c8 -- p60;
	c8 -- p83;
	c8 -- p31;
	c8 -- p75;
	c8 -- p2;
	c8 -- p61;
	c8 -- p27;
	c8 -- p29;
	c8 -- p35;
	c8 -- p38;
	c8 -- p63;
	c8 -- p36;
	c8 -- p26;
	c8 -- p87;
	c8 -- p97;
	c8 -- p40;
	c9 -- p24;
	c9 -- p15;
	c9 -- p53;
	c9 -- p34;
	c9 -- p41;
	c9 -- p70;
	c9 -- p2;
	c9 -- p48;
	c9 -- p11;
	c9 -- p86;
	c9 -- p40;
	c9 -- p56;
	c9 -- p54;
	c9 -- p67;
	c9 -- p42;
	c9 -- p77;
	c10 -- p52;
	c10 -- p6;
	c10 -- p32;
	c10 -- p82;
	c10 -- p30;
	c10 -- p28;
	c10 -- p95;
	c10 -- p46;
	c10 -- p50;
	c10 -- p91;
	c10 -- p9;
	c10 -- p68;
	c10 -- p92;
	c10 -- p22;
	c11 -- p46;
	c11 -- p76;
	c11 -- p12;
	c11 -- p48;
	c11 -- p38;
	c11 -- p71;
	c11 -- p10;
	c11 -- p21;
	c11 -- p42;
	c11 -- p82;
	c11 -- p64;
	c11 -- p85;
	c11 -- p23;
	c11 -- p1;
	c11 -- p50;
	c11 -- p63;
	c11 -- p29;
	c11 -- p52;
	c11 -- p68;
	c11 -- p90;
	c11 -- p61;
	c11 -- p9;
	c11 -- p44;
	c11 -- p84;
	c11 -- p24;
	c11 -- p57;
	c11 -- p27;
	c11 -- p69;
	c11 -- p81;
	c12 -- p79;
	c12 -- p81;
	c12 -- p80;
	c12 -- p1;
	c12 -- p88;
	c12 -- p10;
	c12 -- p67;
	c12 -- p95;
	c12 -- p52;
	c13 -- p78;
	c13 -- p59;
	c13 -- p13;
	c13 -- p30;
	c13 -- p73;
	c13 -- p35;
	c13 -- p19;
	c13 -- p77;
	c13 -- p10;
	c13 -- p45;
	c13 -- p75;
	c13 -- p83;
	c13 -- p43;
	c13 -- p39;
	c13 -- p84;
	c13 -- p23;
	c13 -- p28;
	c13 -- p52;
	c13 -- p54;
	c13 -- p12;
	c13 -- p95;
	c13 -- p46;
	c13 -- p79;
	c13 -- p88;
	c13 -- p17;
	c13 -- p8;
	c13 -- p11;
	c13 -- p14;
	c13 -- p58;
	c13 -- p41;
	c13 -- p86;
	c13 -- p81;
	c13 -- p6;
	c13 -- p50;
	c14 -- p14;
	c14 -- p54;
	c14 -- p72;
	c14 -- p17;
	c14 -- p34;
	c14 -- p77;
	c14 -- p40;
	c14 -- p60;
	c14 -- p96;
	c14 -- p90;
	c14 -- p26;
	c14 -- p55;
	c14 -- p52;
	c14 -- p7;
	c14 -- p67;
	c14 -- p61;
	c14 -- p42;
	c14 -- p78;
	c14 -- p30;
	c14 -- p81;
	c14 -- p39;
	c14 -- p24;
	c14 -- p92;
	c14 -- p46;
	c14 -- p44;
	c14 -- p6;
	c14 -- p22;
	c14 -- p95;
	c14 -- p69;
	c14 -- p2;
	c14 -- p32;
	c14 -- p89;
	c14 -- p50;
	c14 -- p4;
	c14 -- p84;
	c14 -- p71;
	c14 -- p13;
	c14 -- p35;
	c14 -- p94;
	c14 -- p8;
	c14 -- p49;
	c14 -- p85;
	c14 -- p33;
	c14 -- p53;
	c14 -- p91;
	c14 -- p18;
	c14 -- p29;
	c14 -- p70;
	c14 -- p1;
	c14 -- p23;
	c14 -- p63;
	c14 -- p27;
	c14 -- p64;
	c14 -- p51;
	c15 -- p60;
	c15 -- p44;
	c15 -- p25;
	c15 -- p6;
	c15 -- p57;
	c15 -- p19;
	c15 -- p40;
	c15 -- p9;
	c15 -- p62;
	c15 -- p91;
	c15 -- p89;
	c15 -- p21;
	c15 -- p24;
	c15 -- p92;
	c15 -- p95;
	c15 -- p70;
	c15 -- p32;
	c15 -- p8;
	c15 -- p16;
	c15 -- p97;
	c15 -- p36;
	c15 -- p90;
	c15 -- p56;
	c15 -- p67;
	c15 -- p81;
	c15 -- p84;
	c15 -- p38;
	c15 -- p59;
	c15 -- p2;
	c15 -- p94;
	c15 -- p20;
	c15 -- p54;
	c15 -- p23;
	c15 -- p73;
	c15 -- p88;
	c15 -- p26;
	c15 -- p64;
	c15 -- p76;
	c15 -- p58;
	c15 -- p27;
	c15 -- p80;
	c15 -- p29;
	c15 -- p4;
	c15 -- p87;
	c15 -- p42;
	c15 -- p10;
	c15 -- p74;
	c15 -- p65;
	c15 -- p37;
	c15 -- p85;
	c15 -- p3;
	c15 -- p34;
	c15 -- p78;
	c16 -- p52;
	c16 -- p24;
	c16 -- p39;
	c16 -- p38;
	c16 -- p80;
	c16 -- p63;
	c16 -- p95;
	c16 -- p62;
	c16 -- p54;
	c16 -- p19;
	c16 -- p46;
	c16 -- p15;
	c16 -- p93;
	c16 -- p42;
	c16 -- p81;
	c16 -- p32;
	c16 -- p25;
	c16 -- p74;
	c16 -- p47;
	c16 -- p49;
	c16 -- p26;
	c16 -- p53;
	c16 -- p82;
	c16 -- p75;
	c16 -- p12;
	c16 -- p14;
	c16 -- p23;
	c16 -- p8;
	c16 -- p10;
	c16 -- p87;
	c16 -- p50;
	c16 -- p33;
	c16 -- p43;
	c16 -- p34;
	c16 -- p67;
	c16 -- p76;
	c16 -- p5;
	c16 -- p73;
	c16 -- p94;
	c16 -- p35;
	c16 -- p18;
	c16 -- p27;
	c16 -- p83;
	c16 -- p77;
	c16 -- p37;
	c16 -- p41;
	c17 -- p70;
	c17 -- p8;
	c17 -- p79;
	c17 -- p34;
	c17 -- p28;
	c17 -- p14;
	c17 -- p6;
	c17 -- p23;
	c17 -- p82;
	c17 -- p5;
	c17 -- p19;
	c17 -- p32;
	c17 -- p12;
	c17 -- p88;
	c17 -- p72;
	c17 -- p67;
	c17 -- p69;
	c17 -- p85;
	c17 -- p43;
	c17 -- p15;
	c17 -- p16;
	c17 -- p66;
	c17 -- p36;
	c17 -- p51;
	c17 -- p59;
	c17 -- p89;
	c17 -- p20;
	c17 -- p95;
	c17 -- p29;
	c17 -- p27;
	c17 -- p24;
	c17 -- p9;
	c17 -- p38;
	c17 -- p58;
	c17 -- p81;
	c17 -- p80;
	c17 -- p60;
	c17 -- p57;
	c17 -- p35;
	c17 -- p75;
	c17 -- p44;
	c17 -- p71;
	c17 -- p31;
	c17 -- p54;
	c17 -- p7;
	c17 -- p96;
	c17 -- p62;
	c17 -- p90;
	c17 -- p92;
	c17 -- p4;
	c17 -- p61;
	c17 -- p77;
	c17 -- p3;
	c17 -- p76;
	c17 -- p84;
	c17 -- p39;
	c18 -- p3;
	c18 -- p37;
	c18 -- p61;
	c18 -- p8;
	c18 -- p84;
	c18 -- p36;
	c18 -- p16;
	c18 -- p38;
	c18 -- p21;
	c18 -- p54;
	c18 -- p63;
	c18 -- p75;
	c18 -- p26;
	c18 -- p49;
	c18 -- p91;
	c18 -- p90;
	c18 -- p85;
	c18 -- p25;
	c18 -- p11;
	c18 -- p92;
	c18 -- p66;
	c18 -- p74;
	c18 -- p62;
	c18 -- p73;
	c18 -- p32;
	c18 -- p81;
	c18 -- p82;
	c18 -- p58;
	c18 -- p22;
	c18 -- p41;
	c18 -- p14;
	c18 -- p52;
	c18 -- p45;
	c18 -- p80;
	c18 -- p72;
	c18 -- p60;
	c18 -- p10;
	c18 -- p67;
	c18 -- p17;
	c18 -- p7;
	c18 -- p28;
	c18 -- p19;
	c18 -- p83;
	c18 -- p77;
	c18 -- p78;
	c18 -- p1;
	c18 -- p40;
	c18 -- p89;
	c18 -- p76;
	c18 -- p56;
	c18 -- p18;
	c18 -- p47;
	c18 -- p13;
	c18 -- p57;
	c18 -- p50;
	c18 -- p33;
	c18 -- p39;
	c18 -- p15;
	c18 -- p5;
	c18 -- p23;
	c18 -- p9;
	c19 -- p95;
	c19 -- p67;
	c19 -- p6;
	c19 -- p89;
	c19 -- p16;
	c20 -- p27;
	c20 -- p38;
	c20 -- p92;
	c20 -- p17;
	c20 -- p2;
	c20 -- p21;
	c20 -- p84;
	c20 -- p50;
	c20 -- p19;
	c20 -- p83;
	c20 -- p55;
	c20 -- p30;
	c20 -- p89;
	c20 -- p12;
	c20 -- p11;
	c20 -- p8;
	c20 -- p65;
	c20 -- p26;
	c20 -- p96;
	c20 -- p66;
	c20 -- p61;
	c20 -- p74;
	c20 -- p36;
	c20 -- p51;
	c20 -- p73;
	c20 -- p95;
	c20 -- p70;
	c20 -- p29;
	c20 -- p14;
	c20 -- p62;
	c20 -- p3;
	c20 -- p40;
	c20 -- p7;
	c20 -- p52;
	c20 -- p54;
	c20 -- p16;
	c20 -- p46;
	c20 -- p88;
	c20 -- p15;
	c20 -- p60;
	c20 -- p64;
	c20 -- p81;
	c20 -- p33;
	c20 -- p28;
	c20 -- p48;
	c20 -- p59;
	c20 -- p90;
	c20 -- p80;
	c20 -- p5;
	c20 -- p35;
	c20 -- p25;
	c20 -- p53;
	c20 -- p32;
	c20 -- p20;
	c20 -- p82;
	c20 -- p4;
	c21 -- p97;
	c21 -- p18;
	c21 -- p93;
	c21 -- p1;
	c21 -- p61;
	c21 -- p55;
	c21 -- p70;
	c21 -- p49;
	c21 -- p94;
	c21 -- p45;
	c21 -- p71;
	c21 -- p41;
	c21 -- p92;
	c21 -- p47;
	c21 -- p72;
	c21 -- p87;
	c21 -- p25;
	c21 -- p57;
	c21 -- p27;
	c21 -- p85;
	c21 -- p34;
	c21 -- p6;
	c21 -- p77;
	c21 -- p58;
	c21 -- p42;
	c21 -- p21;
	c21 -- p60;
	c22 -- p87;
	c22 -- p61;
	c22 -- p45;
	c22 -- p78;
	c22 -- p73;
	c22 -- p95;
	c22 -- p33;
	c22 -- p89;
	c22 -- p25;
	c22 -- p20;
	c22 -- p3;
	c22 -- p77;
	c22 -- p30;
	c22 -- p46;
	c22 -- p71;
	c22 -- p62;
	c22 -- p55;
	c22 -- p13;
	c22 -- p92;
	c22 -- p69;
	c22 -- p40;
	c22 -- p75;
	c22 -- p8;
	c22 -- p57;
	c22 -- p12;
	c22 -- p42;
	c22 -- p93;
	c22 -- p94;
	c22 -- p15;
	c22 -- p41;
	c22 -- p58;
	c22 -- p35;
	c22 -- p31;
	c22 -- p65;
	c22 -- p6;
	c22 -- p5;
	c22 -- p14;
	c22 -- p51;
	c22 -- p83;
	c22 -- p91;
	c22 -- p43;
	c22 -- p60;
	c22 -- p4;
	c22 -- p54;
	c22 -- p82;
	c22 -- p11;
	c22 -- p80;
	c22 -- p23;
	c22 -- p34;
	c22 -- p76;
	c22 -- p29;
	c22 -- p44;
	c22 -- p96;
	c22 -- p47;
	c22 -- p97;
	c22 -- p21;
	c22 -- p59;
	c22 -- p32;
	c22 -- p85;
	c23 -- p46;
	c23 -- p7;
	c23 -- p3;
	c23 -- p82;
	c23 -- p93;
	c23 -- p25;
	c23 -- p89;
	c23 -- p55;
	c23 -- p20;
	c23 -- p37;
	c23 -- p12;
	c23 -- p38;
	c23 -- p58;
	c23 -- p74;
	c23 -- p16;
	c23 -- p5;
	c23 -- p17;
	c23 -- p4;
	c23 -- p56;
	c23 -- p9;
	c23 -- p43;
	c23 -- p68;
	c23 -- p60;
	c23 -- p64;
	c23 -- p85;
	c23 -- p31;
	c23 -- p70;
	c23 -- p13;
	c23 -- p78;
	c23 -- p23;
	c23 -- p62;
	c23 -- p50;
	c23 -- p10;
	c23 -- p65;
	c23 -- p83;
	c23 -- p61;
	c23 -- p95;
	c23 -- p44;
	c23 -- p66;
	c23 -- p52;
	c23 -- p36;
	c23 -- p71;
	c23 -- p59;
	c23 -- p75;
	c23 -- p48;
	c23 -- p40;
	c23 -- p32;
	c23 -- p21;
	c23 -- p57;
	c23 -- p79;
	c23 -- p1;
	c23 -- p2;
	c23 -- p19;
	c23 -- p29;
	c24 -- p2;
	c24 -- p63;
	c24 -- p75;
	c24 -- p66;
	c24 -- p45;
	c24 -- p95;
	c24 -- p59;
	c24 -- p60;
	c24 -- p30;
	c24 -- p44;
	c24 -- p71;
	c24 -- p23;
	c24 -- p16;
	c24 -- p91;
	c24 -- p97;
	c24 -- p19;
	c24 -- p47;
	c24 -- p22;
	c24 -- p13;
	c24 -- p76;
	c24 -- p53;
	c24 -- p32;
	c24 -- p37;
	c24 -- p74;
	c24 -- p81;
	c24 -- p34;
	c24 -- p8;
	c24 -- p31;
	c24 -- p4;
	c24 -- p87;
	c24 -- p92;
	c24 -- p73;
	c24 -- p86;
	c24 -- p1;
	c24 -- p70;
	c24 -- p11;
	c24 -- p72;
	c24 -- p7;
	c24 -- p96;
	c25 -- p8;
	c25 -- p3;
	c25 -- p13;
	c25 -- p24;
	c25 -- p19;
	c25 -- p15;
	c25 -- p29;
	c25 -- p22;
	c25 -- p20;
	c25 -- p41;
	c26 -- p71;
	c26 -- p75;
	c26 -- p30;
	c26 -- p20;
	c26 -- p25;
	c26 -- p78;
	c26 -- p80;
	c26 -- p36;
	c26 -- p56;
	c27 -- p38;
	c27 -- p29;
	c27 -- p9;
	c27 -- p83;
	c27 -- p18;
	c27 -- p80;
	c27 -- p30;
	c27 -- p39;
	c27 -- p51;
	c27 -- p5;
	c27 -- p93;
	c27 -- p25;
	c27 -- p82;
	c27 -- p42;
	c27 -- p10;
	c27 -- p61;
	c27 -- p89;
	c27 -- p65;
	c27 -- p54;
	c27 -- p14;
	c27 -- p77;
	c27 -- p21;
	c27 -- p37;
	c27 -- p45;
	c27 -- p53;
	c27 -- p70;
	c27 -- p75;
	c27 -- p81;
	c27 -- p4;
	c27 -- p23;
	c27 -- p44;
	c27 -- p58;
	c27 -- p52;
	c27 -- p59;
	c27 -- p16;
	c27 -- p2;
	c27 -- p34;
	c27 -- p71;
	c27 -- p95;
	c27 -- p87;
	c28 -- p90;
	c28 -- p61;
	c28 -- p20;
	c28 -- p83;
	c28 -- p66;
	c28 -- p81;
	c28 -- p89;
	c28 -- p62;
	c28 -- p18;
	c28 -- p23;
	c28 -- p69;
	c28 -- p39;
	c28 -- p44;
	c28 -- p53;
	c28 -- p49;
	c28 -- p88;
	c28 -- p91;
	c28 -- p67;
	c28 -- p9;
	c28 -- p35;
	c28 -- p96;
	c28 -- p95;
	c28 -- p14;
	c28 -- p86;
	c28 -- p48;
	c28 -- p37;
	c28 -- p40;
	c28 -- p78;
	c28 -- p28;
	c28 -- p55;
	c28 -- p43;
	c28 -- p65;
	c29 -- p23;
	c29 -- p55;
	c29 -- p84;
	c29 -- p18;
	c29 -- p81;
	c30 -- p71;
	c30 -- p69;
	c30 -- p70;
	c31 -- p45;
	c31 -- p19;
	c31 -- p82;
	c31 -- p48;
	c31 -- p4;
	c31 -- p6;
	c31 -- p14;
	c31 -- p57;
	c31 -- p76;
	c31 -- p35;
	c31 -- p75;
	c31 -- p55;
	c31 -- p64;
	c31 -- p25;
	c31 -- p56;
	c31 -- p71;
	c31 -- p73;
	c31 -- p7;
	c31 -- p95;
	c31 -- p68;
	c31 -- p34;
	c31 -- p24;
	c31 -- p37;
	c31 -- p47;
	c31 -- p51;
	c31 -- p10;
	c31 -- p16;
	c31 -- p81;
	c31 -- p5;
	c31 -- p92;
	c31 -- p69;
	c31 -- p72;
	c31 -- p74;
	c31 -- p78;
	c31 -- p38;
	c31 -- p66;
	c31 -- p50;
	c31 -- p52;
	c31 -- p80;
	c32 -- p37;
	c32 -- p30;
	c32 -- p8;
	c32 -- p4;
	c32 -- p55;
	c32 -- p48;
	c32 -- p83;
	c32 -- p32;
	c32 -- p88;
	c32 -- p89;
	c32 -- p94;
	c32 -- p66;
	c32 -- p56;
	c32 -- p91;
	c32 -- p62;
	c32 -- p50;
	c32 -- p63;
	c32 -- p60;
	c32 -- p22;
	c32 -- p80;
	c32 -- p38;
	c32 -- p24;
	c32 -- p3;
	c32 -- p28;
	c32 -- p96;
	c32 -- p5;
	c32 -- p85;
	c32 -- p77;
	c32 -- p54;
	c32 -- p31;
	c32 -- p58;
	c32 -- p36;
	c32 -- p93;
	c32 -- p21;
	c32 -- p40;
	c32 -- p6;
	c32 -- p1;
	c32 -- p79;
	c32 -- p12;
	c32 -- p19;
	c32 -- p10;
	c32 -- p39;
	c32 -- p81;
	c32 -- p78;
	c32 -- p70;
	c32 -- p73;
	c32 -- p44;
	c33 -- p7;
	c33 -- p5;
	c33 -- p66;
	c33 -- p34;
	c33 -- p75;
	c33 -- p93;
	c33 -- p18;
	c33 -- p14;
	c33 -- p67;
	c33 -- p80;
	c33 -- p41;
	c33 -- p25;
	c33 -- p87;
	c33 -- p71;
	c33 -- p48;
	c33 -- p88;
	c33 -- p56;
	c33 -- p78;
	c33 -- p61;
	c33 -- p26;
	c33 -- p29;
	c33 -- p24;
	c33 -- p72;
	c33 -- p82;
	c33 -- p79;
	c33 -- p38;
	c33 -- p92;
	c33 -- p40;
	c33 -- p52;
	c33 -- p97;
	c33 -- p37;
	c33 -- p94;
	c33 -- p2;
	c33 -- p32;
	c33 -- p73;
	c33 -- p43;
	c34 -- p81;
	c34 -- p51;
	c34 -- p38;
	c34 -- p67;
	c34 -- p27;
	c34 -- p90;
	c34 -- p74;
	c34 -- p87;
	c34 -- p75;
	c34 -- p25;
	c34 -- p71;
	c34 -- p34;
	c34 -- p46;
	c34 -- p40;
	c34 -- p66;
	c34 -- p6;
	c34 -- p76;
	c34 -- p73;
	c34 -- p26;
	c34 -- p83;
	c35 -- p63;
	c35 -- p26;
	c35 -- p30;
	c35 -- p1;
	c36 -- p97;
	c36 -- p56;
	c36 -- p50;
	c36 -- p62;
	c36 -- p37;
	c36 -- p39;
	c36 -- p25;
	c36 -- p54;
	c36 -- p16;
	c36 -- p6;
	c36 -- p49;
	c36 -- p89;
	c36 -- p12;
	c36 -- p59;
	c36 -- p9;
	c36 -- p7;
	c36 -- p88;
	c36 -- p30;
	c36 -- p26;
	c36 -- p2;
	c36 -- p55;
	c36 -- p83;
	c36 -- p69;
	c36 -- p96;
	c36 -- p91;
	c37 -- p54;
	c37 -- p94;
	c37 -- p13;
	c37 -- p80;
	c37 -- p42;
	c37 -- p55;
	c37 -- p12;
	c37 -- p26;
	c37 -- p97;
	c37 -- p89;
	c37 -- p36;
	c37 -- p2;
	c37 -- p65;
	c37 -- p21;
	c37 -- p25;
	c37 -- p17;
	c37 -- p4;
	c37 -- p63;
	c37 -- p88;
	c37 -- p10;
	c37 -- p72;
	c37 -- p56;
	c37 -- p15;
	c37 -- p84;
	c37 -- p73;
	c37 -- p40;
	c37 -- p5;
	c37 -- p44;
	c37 -- p34;
	c37 -- p39;
	c37 -- p9;
	c37 -- p85;
	c37 -- p11;
	c37 -- p43;
	c37 -- p32;
	c37 -- p16;
	c37 -- p76;
	c37 -- p14;
	c37 -- p81;
	c37 -- p20;
	c37 -- p64;
	c37 -- p30;
	c37 -- p91;
	c37 -- p45;
	c37 -- p38;
	c37 -- p37;
	c37 -- p71;
	c37 -- p62;
	c37 -- p53;
	c37 -- p50;
	c37 -- p77;
	c37 -- p70;
	c37 -- p75;
	c37 -- p47;
	c37 -- p3;
	c37 -- p86;
	c37 -- p22;
	c37 -- p33;
	c38 -- p56;
	c38 -- p45;
	c38 -- p34;
	c38 -- p83;
	c38 -- p39;
	c38 -- p33;
	c38 -- p42;
	c38 -- p36;
	c38 -- p10;
	c39 -- p6;
	c39 -- p74;
	c39 -- p65;
	c39 -- p34;
	c39 -- p8;
	c39 -- p18;
	c39 -- p53;
	c39 -- p40;
	c39 -- p37;
	c39 -- p80;
	c39 -- p10;
	c39 -- p1;
	c39 -- p13;
	c39 -- p48;
	c39 -- p70;
	c39 -- p68;
	c39 -- p79;
	c39 -- p89;
	c39 -- p84;
	c39 -- p17;
	c39 -- p22;
	c39 -- p35;
	c39 -- p77;
	c39 -- p67;
	c39 -- p66;
	c39 -- p21;
	c39 -- p20;
	c39 -- p2;
	c39 -- p43;
	c39 -- p85;
	c39 -- p38;
	c39 -- p15;
	c39 -- p81;
	c39 -- p58;
	c39 -- p46;
	c39 -- p41;
	c39 -- p36;
	c39 -- p19;
	c39 -- p76;
	c39 -- p82;
	c39 -- p26;
	c39 -- p25;
	c39 -- p59;
	c39 -- p54;
	c39 -- p63;
	c40 -- p39;
	c40 -- p14;
	c40 -- p31;
	c40 -- p22;
	c40 -- p53;
	c40 -- p24;
	c40 -- p67;
	c40 -- p18;
	c41 -- p65;
	c41 -- p59;
	c41 -- p74;
	c41 -- p52;
	c41 -- p60;
	c41 -- p62;
	c41 -- p80;
	c41 -- p63;
	c41 -- p56;
	c41 -- p66;
	c41 -- p69;
	c41 -- p14;
	c41 -- p30;
	c41 -- p1;
	c42 -- p57;
	c42 -- p74;
	c42 -- p91;
	c42 -- p54;
	c42 -- p22;
	c42 -- p33;
	c42 -- p32;
	c42 -- p8;
	c42 -- p53;
	c42 -- p83;
	c42 -- p77;
	c42 -- p40;
	c42 -- p72;
	c42 -- p14;
	c42 -- p28;
	c42 -- p12;
	c42 -- p6;
	c42 -- p49;
	c42 -- p63;
	c42 -- p25;
	c42 -- p44;
	c42 -- p61;
	c42 -- p65;
	c42 -- p41;
	c42 -- p45;
	c42 -- p42;
	c42 -- p11;
	c42 -- p35;
	c42 -- p47;
	c42 -- p4;
	c42 -- p46;
	c42 -- p80;
	c42 -- p58;
	c42 -- p90;
	c42 -- p97;
	c42 -- p73;
	c42 -- p10;
	c42 -- p85;
	c42 -- p68;
	c42 -- p21;
	c42 -- p31;
	c42 -- p71;
	c42 -- p38;
	c42 -- p56;
	c42 -- p17;
	c42 -- p18;
	c42 -- p1;
	c42 -- p5;
	c42 -- p87;
	c42 -- p62;
	c42 -- p78;
	c42 -- p82;
	c42 -- p60;
	c42 -- p29;
	c42 -- p48;
	c42 -- p86;
	c43 -- p70;
	c43 -- p18;
	c43 -- p81;
	c43 -- p75;
	c43 -- p33;
	c43 -- p58;
	c43 -- p39;
	c43 -- p9;
	c43 -- p52;
	c43 -- p41;
	c43 -- p7;
	c43 -- p90;
	c43 -- p4;
	c43 -- p77;
	c43 -- p73;
	c43 -- p10;
	c43 -- p60;
	c43 -- p22;
	c43 -- p54;
	c43 -- p69;
	c43 -- p68;
	c43 -- p96;
	c43 -- p5;
	c43 -- p72;
	c43 -- p87;
	c43 -- p14;
	c43 -- p16;
	c43 -- p19;
	c43 -- p44;
	c43 -- p3;
	c43 -- p29;
	c43 -- p2;
	c43 -- p74;
	c43 -- p43;
	c43 -- p42;
	c43 -- p55;
	c44 -- p1;
	c44 -- p15;
	c44 -- p4;
	c44 -- p14;
	c44 -- p30;
	c44 -- p64;
	c44 -- p18;
	c44 -- p19;
	c44 -- p73;
	c44 -- p56;
	c44 -- p38;
	c44 -- p97;
	c44 -- p63;
	c44 -- p33;
	c44 -- p61;
	c44 -- p32;
	c44 -- p84;
	c44 -- p67;
	c44 -- p54;
	c44 -- p39;
	c44 -- p8;
	c44 -- p77;
	c44 -- p93;
	c44 -- p17;
	c44 -- p51;
	c44 -- p6;
	c44 -- p16;
	c44 -- p43;
	c44 -- p23;
	c44 -- p81;
	c44 -- p45;
	c44 -- p22;
	c44 -- p50;
	c44 -- p35;
	c44 -- p53;
	c44 -- p79;
	c44 -- p68;
	c44 -- p21;
	c44 -- p88;
	c44 -- p10;
	c44 -- p5;
	c44 -- p24;
	c44 -- p58;
	c44 -- p76;
	c44 -- p12;
	c44 -- p40;
	c44 -- p41;
	c44 -- p9;
	c44 -- p94;
	c44 -- p89;
	c44 -- p60;
	c44 -- p20;
	c44 -- p25;
	c44 -- p42;
	c44 -- p69;
	c44 -- p92;
	c44 -- p28;
	c44 -- p95;
	c44 -- p82;
	c44 -- p62;
	c45 -- p60;
	c45 -- p70;
	c45 -- p17;
	c45 -- p82;
	c45 -- p53;
	c45 -- p81;
	c45 -- p11;
	c45 -- p30;
	c45 -- p39;
	c45 -- p56;
	c45 -- p18;
	c45 -- p20;
	c45 -- p23;
	c45 -- p26;
	c45 -- p68;
	c45 -- p59;
	c45 -- p87;
	c45 -- p55;
	c45 -- p32;
	c45 -- p16;
	c45 -- p44;
	c45 -- p31;
	c45 -- p4;
	c45 -- p41;
	c45 -- p66;
	c45 -- p92;
	c45 -- p95;
	c45 -- p36;
	c45 -- p35;
	c45 -- p96;
	c45 -- p74;
	c45 -- p51;
	c45 -- p50;
	c45 -- p77;
	c45 -- p27;
	c45 -- p5;
	c45 -- p1;
	c45 -- p45;
	c45 -- p25;
	c45 -- p89;
	c45 -- p58;
	c45 -- p80;
	c45 -- p34;
	c45 -- p62;
	c45 -- p12;
	c45 -- p29;
	c45 -- p83;
	c45 -- p21;
	c45 -- p7;
	c45 -- p86;
	c46 -- p43;
	c46 -- p32;
	c46 -- p19;
	c46 -- p12;
	c46 -- p65;
	c46 -- p3;
	c46 -- p92;
	c46 -- p97;
	c46 -- p24;
	c46 -- p17;
	c46 -- p91;
	c46 -- p82;
	c46 -- p93;
	c46 -- p81;
	c46 -- p33;
	c46 -- p46;
	c46 -- p42;
	c46 -- p68;
	c46 -- p79;
	c46 -- p4;
	c46 -- p72;
	c46 -- p41;
	c46 -- p2;
	c46 -- p35;
	c46 -- p34;
	c46 -- p28;
	c46 -- p80;
	c46 -- p88;
	c46 -- p39;
	c46 -- p15;
	c46 -- p67;
	c46 -- p77;
	c46 -- p27;
	c46 -- p61;
	c46 -- p73;
	c46 -- p94;
	c46 -- p5;
	c47 -- p57;
	c47 -- p74;
	c47 -- p78;
	c47 -- p29;
	c47 -- p84;
	c47 -- p77;
	c47 -- p54;
	c47 -- p91;
	c47 -- p17;
	c47 -- p50;
	c47 -- p11;
	c47 -- p90;
}
